Sandra Jurela - Cryptocurrency SQL Case Study
…
  mutate(month_start = lubridate::floor_date(market_date, unit = "month")) %>% 
  group_by(ticker, month_start) %>% 
  summarise(monthly_volume = sum(
    case_when(
      str_sub(volume, -1) == "K" ~ as.numeric(str_sub(volume, 1, str_length(volume) - 1)) * 10^3,
      str_sub(volume, -1) == "M" ~ as.numeric(str_sub(volume, 1, str_length(volume) - 1)) * 10^6,
      str_sub(volume, -1) == "-" ~ as.numeric(str_sub(volume, 1, str_length(volume) - 1)) * 0)
    )
  ) %>% 
  ungroup() %>% 
  group_by(ticker) %>% 
  mutate(cumulative_monthly_volume = cumsum(monthly_volume)) %>% 
  ungroup()

# A tibble: 24 × 4
   ticker month_start monthly_volume cumulative_monthly_volume
   <chr>  <date>               <dbl>                     <dbl>
 1 BTC    2020-01-01        23451920                  23451920
 2 BTC    2020-02-01        23387210                  46839130
 3 BTC    2020-03-01        47841320                  94680450
 4 BTC    2020-04-01        39622290                 134302740
 5 BTC    2020-05-01        38384270                 172687010
 6 BTC    2020-06-01        15339600                 188026610
 7 BTC    2020-07-01        13245990                 201272600
 8 BTC    2020-08-01        15490030                 216762630
 9 BTC    2020-09-01        83878810                 300641440
10 BTC    2020-10-01         2418580                 303060020
# … with 14 more rows
…
