Sandra Jurela - Customer Analysis – Advanced Plots With {ggplot2}
…
pct_sales_by_customer <- bike_orderlines %>% 
  select(bikeshop_name, category_1, category_2, quantity) %>% 
  group_by(bikeshop_name, category_1, category_2) %>% 
  summarise(total_qty = sum(quantity)) %>% 
  ungroup() %>% 
  group_by(bikeshop_name) %>% 
  mutate(pct = total_qty / sum(total_qty)) %>% 
  ungroup() %>% 
  mutate(bikeshop_name = as.factor(bikeshop_name) %>% fct_rev()) %>%  
  mutate(bikeshop_name_num = as.numeric(bikeshop_name))
    
pct_sales_by_customer   

# A tibble: 270 × 6
   bikeshop_name      category_1 category_2         total_qty    pct bikeshop_…¹
   <fct>              <chr>      <chr>                  <dbl>  <dbl>       <dbl>
 1 Albuquerque Cycles Mountain   Cross Country Race        48 0.168           30
 2 Albuquerque Cycles Mountain   Fat Bike                   9 0.0315          30
 3 Albuquerque Cycles Mountain   Over Mountain             13 0.0455          30
 4 Albuquerque Cycles Mountain   Sport                     35 0.122           30
 5 Albuquerque Cycles Mountain   Trail                     38 0.133           30
 6 Albuquerque Cycles Road       Cyclocross                 7 0.0245          30
 7 Albuquerque Cycles Road       Elite Road                69 0.241           30
 8 Albuquerque Cycles Road       Endurance Road            54 0.189           30
 9 Albuquerque Cycles Road       Triathalon                13 0.0455          30
10 Ann Arbor Speed    Mountain   Cross Country Race        32 0.0532          29
# … with 260 more rows, and abbreviated variable name ¹​bikeshop_name_num
…
