Sandra Jurela - Sentiment Analysis of the Dystopian Classic ‘We’ by Yevgeny Zamyatin
…
we <- gutenberg_download(61963, strip = TRUE)

we <- read_rds("data/we.rds") %>% select(-gutenberg_id)

we

# A tibble: 7,793 × 2
   gutenberg_id text                                     
          <int> <chr>                                    
 1        61963 "EUGENE ZAMIATIN"                        
 2        61963 ""                                       
 3        61963 "WE"                                     
 4        61963 ""                                       
 5        61963 "Authorized Translation from the Russian"
 6        61963 ""                                       
 7        61963 "  By"                                   
 8        61963 "  GREGORY ZILBOORG"                     
 9        61963 ""                                       
10        61963 "  New York"                             
# ℹ 7,783 more rows

# Add line numbers to divide text into sections
we %<>% 
  mutate(author = "Yevgeny Zamyatin",
         title = "We") %>%
  select(author, title, text) %>%        # Remove book ID number
  print()

# A tibble: 7,793 × 3
   author           title text                                     
   <chr>            <chr> <chr>                                    
 1 Yevgeny Zamyatin We    "EUGENE ZAMIATIN"                        
 2 Yevgeny Zamyatin We    ""                                       
 3 Yevgeny Zamyatin We    "WE"                                     
 4 Yevgeny Zamyatin We    ""                                       
 5 Yevgeny Zamyatin We    "Authorized Translation from the Russian"
 6 Yevgeny Zamyatin We    ""                                       
 7 Yevgeny Zamyatin We    "  By"                                   
 8 Yevgeny Zamyatin We    "  GREGORY ZILBOORG"                     
 9 Yevgeny Zamyatin We    ""                                       
10 Yevgeny Zamyatin We    "  New York"                             
# ℹ 7,783 more rows

How to tidy text data

The text data is currently in a dataframe, but it is not tidy in the sense of being compatible with tidy tools. We need to transform it so that it is in a different format, with one observation per row.

When we do text analysis, the observations we are interested in aren't the whole talks at once, but rather individual tokens. A token is a meaningful unit of text for analysis; in many cases, this just means a single word. The process of tokenization identifies and breaks apart text into individual tokens. You can use tidytext's unnest_tokens() function to accomplish all of this at once, both the tidying and the tokenization.

# Tokenize the data
words_we <- we %>%
  unnest_tokens(word, text) %>%  # Break lines into words
  print()

# A tibble: 65,205 × 3
   author           title word       
   <chr>            <chr> <chr>      
 1 Yevgeny Zamyatin We    eugene     
 2 Yevgeny Zamyatin We    zamiatin   
 3 Yevgeny Zamyatin We    we         
 4 Yevgeny Zamyatin We    authorized 
 5 Yevgeny Zamyatin We    translation
 6 Yevgeny Zamyatin We    from       
 7 Yevgeny Zamyatin We    the        
 8 Yevgeny Zamyatin We    russian    
 9 Yevgeny Zamyatin We    by         
10 Yevgeny Zamyatin We    gregory    
# ℹ 65,195 more rows

We piped in the original, non-tidy data set. We gave an argument that we want to tokenize into and an argument that we are tokenizing from.oving stop words

words_we %>% 
  anti_join(get_stopwords()) %>% 
  count(word, sort = TRUE)

# A tibble: 5,695 × 2
   word           n
   <chr>      <int>
 1 like         365
 2 one          303
 3 eyes         179
 4 yes          151
 5 now          136
 6 everything   134
 7 well         134
 8 know         128
 9 330          117
10 something    117
# ℹ 5,685 more rows
…
SENTIMENT ARC

# Divide the text into sections of 100 lines and calculate a
# sentiment score for each section
words_we <- words_we %>% mutate(line = row_number())
score_arc_we <- words_we %>% 
  inner_join(get_sentiments("afinn")) %>%  # Use afinn
  group_by(section = line %/% 100) %>%     # Divide text
  summarize(score = mean(value)) %>%       # Section scores
  print()

# A tibble: 645 × 2
   section  score
     <dbl>  <dbl>
 1       0  1.75 
 2       1  0.75 
 3       2  0    
 4       3  0.778
 5       4  0.333
 6       5  2.25 
 7       6  0.545
 8       7  0.4  
 9       8  1    
10       9 -0.286
# ℹ 635 more rows
…
tidy_elem_part <- elementary_particles %>% 
  mutate(linenumber = row_number()) %>%
  unnest_tokens(word, text)

tidy_elem_part

# A tibble: 87,196 × 4
   author             title                    linenumber word       
   <chr>              <chr>                         <int> <chr>      
 1 Michel Houellebecq The Elementary Particles          1 the        
 2 Michel Houellebecq The Elementary Particles          1 elementary 
 3 Michel Houellebecq The Elementary Particles          1 particles  
 4 Michel Houellebecq The Elementary Particles          2 by         
 5 Michel Houellebecq The Elementary Particles          2 michel     
 6 Michel Houellebecq The Elementary Particles          2 houellebecq
 7 Michel Houellebecq The Elementary Particles          3 translated 
 8 Michel Houellebecq The Elementary Particles          3 from       
 9 Michel Houellebecq The Elementary Particles          3 the        
10 Michel Houellebecq The Elementary Particles          3 french     
# ℹ 87,186 more rows
…
tidy_genius <- genius %>% 
  mutate(linenumber = row_number()) %>%
  unnest_tokens(word, text)

tidy_genius

# A tibble: 32,800 × 4
   author        title                      linenumber word     
   <chr>         <chr>                           <int> <chr>    
 1 Aldous Huxley The Genius and the Goddess          1 aldous   
 2 Aldous Huxley The Genius and the Goddess          1 huxley   
 3 Aldous Huxley The Genius and the Goddess          2 the      
 4 Aldous Huxley The Genius and the Goddess          2 genius   
 5 Aldous Huxley The Genius and the Goddess          2 and      
 6 Aldous Huxley The Genius and the Goddess          3 the      
 7 Aldous Huxley The Genius and the Goddess          3 goddess  
 8 Aldous Huxley The Genius and the Goddess          4 copyright
 9 Aldous Huxley The Genius and the Goddess          4 aldous   
10 Aldous Huxley The Genius and the Goddess          4 huxley   
# ℹ 32,790 more rows
…
Rows: 88,049
Columns: 2
$ word  <chr> "ceugene", "zamiatin", "we", "authorized", "translation", "russi…
$ novel <chr> "We", "We", "We", "We", "We", "We", "We", "We", "We", "We", "We"…

novels_anno <- novels %>% 
  group_by(novel) %>%
  mutate(words = n()) %>%
  left_join(get_sentiments("nrc")) %>%
  mutate(novel = factor(novel),
         sentiment = factor(sentiment))

novels_anno

# A tibble: 109,113 × 4
# Groups:   novel [3]
   word        novel words sentiment
   <chr>       <fct> <int> <fct>    
 1 ceugene     We    31713 <NA>     
 2 zamiatin    We    31713 <NA>     
 3 we          We    31713 <NA>     
 4 authorized  We    31713 positive 
 5 translation We    31713 trust    
 6 russian     We    31713 <NA>     
 7 by          We    31713 <NA>     
 8 gregory     We    31713 <NA>     
 9 zilboorg    We    31713 <NA>     
10 york        We    31713 <NA>     
# ℹ 109,103 more rows

novels_ <- novels_anno %>%
  group_by(novel) %>%
  group_by(novel, sentiment) %>%
  summarise(sentiment = unique(sentiment),
                   sentiment_freq = n(),
                   words = unique(words)) %>%
  filter(is.na(sentiment) == F) %>%
  mutate(percentage = round(sentiment_freq/words*100, 1))

novels_

# A tibble: 30 × 5
# Groups:   novel [3]
   novel                    sentiment    sentiment_freq words percentage
   <fct>                    <fct>                 <int> <int>      <dbl>
 1 The Elementary Particles anger                  1015 40028        2.5
 2 The Elementary Particles anticipation           1747 40028        4.4
 3 The Elementary Particles disgust                 900 40028        2.2
 4 The Elementary Particles fear                   1402 40028        3.5
 5 The Elementary Particles joy                    1590 40028        4  
 6 The Elementary Particles negative               2688 40028        6.7
 7 The Elementary Particles positive               3832 40028        9.6
 8 The Elementary Particles sadness                1494 40028        3.7
 9 The Elementary Particles surprise                823 40028        2.1
10 The Elementary Particles trust                  2200 40028        5.5
# ℹ 20 more rows
…
