Sandra Jurela - What Do We Die From?
…
Some more data manipulation to get the dataset ready for analysis. (?)

deaths_clean <- deaths_clean %>% 
  pivot_longer(cols = -c(Entity, Code, Year), names_to = "Cause", values_to = "Deaths") %>% 
  mutate(Category = case_when(
    Cause %in% disease ~ "Disease",
    Cause %in% human_natur ~ "Human natur" ,
    Cause %in% accident ~ "Accident" )) %>% 
  select(1:4, 6, 5)

deaths_clean 

# A tibble: 225,463 × 6
   Entity      Code   Year Cause                           Category    Deaths
   <chr>       <chr> <dbl> <chr>                           <chr>        <dbl>
 1 Afghanistan AFG    2007 Meningitis                      Disease       2933
 2 Afghanistan AFG    2007 Alzheimer's and other dementias Disease       1402
 3 Afghanistan AFG    2007 Parkinson's disease             Disease        450
 4 Afghanistan AFG    2007 Nutritional deficiencies        Disease       2488
 5 Afghanistan AFG    2007 Malaria                         Disease        393
 6 Afghanistan AFG    2007 Drowning                        Accident      2127
 7 Afghanistan AFG    2007 Interpersonal violence          Human natur   3657
 8 Afghanistan AFG    2007 Maternal disorders              Disease       4990
 9 Afghanistan AFG    2007 HIV/AIDS                        Disease        148
10 Afghanistan AFG    2007 Drug use disorders              Human natur    252
# … with 225,453 more rows

📊 Trends in Death rate by Cause, World, 1990-2019

Our metric for this visualization will be death rate per year, measured as the annual number of deaths per 100,000 individuals, Therefore, we need a dataset with world’s total populations from 1990 - 2019. It is obtained from The World Bank and prepared in Excel.

world_pop <- read_csv("data/world_pop_1990-2019.csv")

world_pop

# A tibble: 30 × 3
   Entity  Year Population
   <chr>  <dbl>      <dbl>
 1 World   1990 5280062644
 2 World   1991 5368139818
 3 World   1992 5452576967
 4 World   1993 5537885402
 5 World   1994 5622085293
 6 World   1995 5706753581
 7 World   1996 5789655178
 8 World   1997 5872284397
 9 World   1998 5954004340
10 World   1999 6034484369
# … with 20 more rows

Data manipulation

trends_world <- deaths_clean %>% 
  filter(Entity == "World") %>% 
  left_join(world_pop, by = c("Entity" = "Entity", "Year" = "Year")) %>%
  mutate(`Death rate` = round(Deaths / Population * 1e+05, 2))

trends_world

# A tibble: 930 × 8
   Entity Code      Year Cause                    Categ…¹ Deaths Popul…² Death…³
   <chr>  <chr>    <dbl> <chr>                    <chr>    <dbl>   <dbl>   <dbl>
 1 World  OWID_WRL  1990 Meningitis               Disease 432524  5.28e9    8.19
 2 World  OWID_WRL  1990 Alzheimer's and other d… Disease 560935  5.28e9   10.6 
 3 World  OWID_WRL  1990 Parkinson's disease      Disease 147238  5.28e9    2.79
 4 World  OWID_WRL  1990 Nutritional deficiencies Disease 757152  5.28e9   14.3 
 5 World  OWID_WRL  1990 Malaria                  Disease 840553  5.28e9   15.9 
 6 World  OWID_WRL  1990 Drowning                 Accide… 460665  5.28e9    8.72
 7 World  OWID_WRL  1990 Interpersonal violence   Human … 373124  5.28e9    7.07
 8 World  OWID_WRL  1990 Maternal disorders       Disease 302586  5.28e9    5.73
 9 World  OWID_WRL  1990 HIV/AIDS                 Disease 336387  5.28e9    6.37
10 World  OWID_WRL  1990 Drug use disorders       Human …  56144  5.28e9    1.06
# … with 920 more rows, and abbreviated variable names ¹​Category, ²​Population,
#   ³​`Death rate`
…
