Sandra Jurela - Shiny App - Mass Shootings in the USA
…
The tidygeocoder package provides geocoding services. It’s designed to work easily with the tidyverse. It also provides access to several different geocoding services, including LocationIQ which I’m going to use here. LocationIQ is a freemium service that provides a free tier, which doesn’t require you to give them your billing details. When you sign up to LocationIQ, they’ll take you to the Manage Your API Access Tokens page, which is where we obtain our API token. Next, you need to provide the tidygeocoder package with your API key.

You can also use the Nominatim (“osm”) geocoding service (OpenStreetMap) which can be specified with the method argument (method = "osm"). I found LocationIQ to be faster.

The first step is to select only locations with missing coordinates and geocode them.

geocoded_locations <- mass_shootings_cln %>% 
  filter(is.na(latitude) | is.na(longitude)) %>% 
  select(location) %>% 
  geocode(location, method = "iq")

geocoded_locations %>% 
  mutate(across(where(is.numeric), ~ num(., digits = 6)))

# A tibble: 25 × 3
   location                         lat        long
   <chr>                      <num:.6!>   <num:.6!>
 1 Winder, Georgia            33.991908  -83.718437
 2 Fordyce, Arkansas          33.813716  -92.412930
 3 Las Vegas, Nevada          36.167256 -115.148516
 4 Lewiston, Maine            44.100452  -70.215029
 5 Jacksonville, Florida      30.332184  -81.655651
 6 Trabuco Canyon, California 33.662623 -117.589380
 7 Philadelphia, Pennsylvania 39.952724  -75.163526
 8 Farmington, New Mexico     36.729115 -108.205445
 9 Allen, Texas               33.103174  -96.670550
10 Louisville, Kentucky       38.254238  -85.759407
# ℹ 15 more rows
…
